Iteration 👯
…
---

```r
sales
```

```
## # A tibble: 35 x 4
##    month brand      id     n
##    <int> <chr>   <dbl> <dbl>
##  1     1 Brand 1  1234     3
##  2     1 Brand 1  8721     9
##  3     1 Brand 1  1822     2
##  4     1 Brand 2  3333     1
##  5     1 Brand 2  2156     9
##  6     1 Brand 2  3987     6
##  7     1 Brand 2  3216     4
##  8     2 Brand 1  1234     8
##  9     2 Brand 1  8721     2
## 10     2 Brand 1  1822     3
## # … with 25 more rows
```
…
