Tidy data 🧹
…
---

## Summary tables 

.question[
Is each of the following a dataset or a summary table?
]

.midi[
.pull-left[

```
## # A tibble: 87 x 3
##    name               height  mass
##    <chr>               <int> <dbl>
##  1 Luke Skywalker        172    77
##  2 C-3PO                 167    75
##  3 R2-D2                  96    32
##  4 Darth Vader           202   136
##  5 Leia Organa           150    49
##  6 Owen Lars             178   120
##  7 Beru Whitesun lars    165    75
##  8 R5-D4                  97    32
##  9 Biggs Darklighter     183    84
## 10 Obi-Wan Kenobi        182    77
## # … with 77 more rows
```
…
---

## Pivot staff data

```r
staff_long <- staff %>%
  pivot_longer(cols = -faculty_type, names_to = "year") %>%
  mutate(value = as.numeric(value))

staff_long
```

```
## # A tibble: 55 x 3
##    faculty_type              year  value
##    <chr>                     <chr> <dbl>
##  1 Full-Time Tenured Faculty 1975   29  
##  2 Full-Time Tenured Faculty 1989   27.6
##  3 Full-Time Tenured Faculty 1993   25  
##  4 Full-Time Tenured Faculty 1995   24.8
##  5 Full-Time Tenured Faculty 1999   21.8
##  6 Full-Time Tenured Faculty 2001   20.3
##  7 Full-Time Tenured Faculty 2003   19.3
##  8 Full-Time Tenured Faculty 2005   17.8
##  9 Full-Time Tenured Faculty 2007   17.2
## 10 Full-Time Tenured Faculty 2009   16.8
## # … with 45 more rows
```
…
