Text analysis 🗞
…
---

## What is tidy text?

```r
text_df %>%
  unnest_tokens(word, text)
```

```
## # A tibble: 32 x 2
##     line word   
##    <int> <chr>  
##  1     1 take   
##  2     1 me     
##  3     1 out    
##  4     1 tonight
##  5     2 where  
##  6     2 there's
##  7     2 music  
##  8     2 and    
##  9     2 there's
## 10     2 people 
## # … with 22 more rows
```
…
---

## How long are Hamilton songs?

Length measured by number of lines

```r
hamilton %>%
  count(track_title) %>%
  arrange(desc(n)) %>%
  select(n, track_title)
```

```
## # A tibble: 52 x 2
##        n track_title                                                       
##    <int> <chr>                                                             
##  1   149 Right Hand Man (Off-Broadway) (Ft. Anthony Ramos, Daveed Diggs, I…
##  2   142 My Shot (Off-Broadway) (Ft. Anthony Ramos, Daveed Diggs, Leslie O…
##  3   141 Non-Stop (Off-Broadway) (Ft. Isaiah Johnson, Leslie Odom Jr., Phi…
##  4   123 The Election of 1800 (Off-Broadway)                               
##  5   118 The Room Where It Happens (Off-Broadway) (Ft. Daveed Diggs, Lesli…
##  6   114 One Last Ride (Ft. Isaiah Johnson)                                
##  7   111 Satisfied (Off-Broadway) (Ft. Anthony Ramos, Phillipa Soo & Renée…
##  8   110 Say No to This (Off-Broadway) (Ft. Ciara Renee, Phillipa Soo, Ren…
##  9   105 Take a Break (Off-Broadway) (Ft. Anthony Ramos, Phillipa Soo & Re…
## 10    96 Ten Things One Thing (Ft. Leslie Odom Jr.)                        
## # … with 42 more rows
```
---

## Tidy up your lyrics!

.small[

```r
hamilton_lyrics <- hamilton %>%
  unnest_tokens(word, lyric)

hamilton_lyrics
```

```
## # A tibble: 22,361 x 6
##    track_title                       track_n  line album   artist     word 
##    <chr>                               <int> <int> <chr>   <chr>      <chr>
##  1 Alexander Hamilton (Off-Broadway…       1     1 Hamilt… Lin-Manue… how  
##  2 Alexander Hamilton (Off-Broadway…       1     1 Hamilt… Lin-Manue… does 
##  3 Alexander Hamilton (Off-Broadway…       1     1 Hamilt… Lin-Manue… a    
##  4 Alexander Hamilton (Off-Broadway…       1     1 Hamilt… Lin-Manue… bast…
##  5 Alexander Hamilton (Off-Broadway…       1     1 Hamilt… Lin-Manue… orph…
##  6 Alexander Hamilton (Off-Broadway…       1     1 Hamilt… Lin-Manue… son  
##  7 Alexander Hamilton (Off-Broadway…       1     1 Hamilt… Lin-Manue… of   
##  8 Alexander Hamilton (Off-Broadway…       1     1 Hamilt… Lin-Manue… a    
##  9 Alexander Hamilton (Off-Broadway…       1     1 Hamilt… Lin-Manue… whore
## 10 Alexander Hamilton (Off-Broadway…       1     1 Hamilt… Lin-Manue… and  
## # … with 22,351 more rows
```
]

---

## What are the most common words?

```r
hamilton_lyrics %>%
  count(word) %>%
  arrange(desc(n))
```

```
## # A tibble: 3,132 x 2
##    word      n
##    <chr> <int>
##  1 the     911
##  2 i       653
##  3 you     615
##  4 to      563
##  5 a       497
##  6 and     416
##  7 in      346
##  8 it      324
##  9 of      301
## 10 my      284
## # … with 3,122 more rows
```
…
## Stop words

- **Stop words** are words which are filtered out before or after processing of natural language data (text)
- They usually refer to the most common words in a language, but there is not a single list of stop words used by all natural language processing tools

---

## Spanish stop words

```r
get_stopwords(language = "es")
```

```
## # A tibble: 308 x 2
##    word  lexicon 
##    <chr> <chr>   
##  1 de    snowball
##  2 la    snowball
##  3 que   snowball
##  4 el    snowball
##  5 en    snowball
##  6 y     snowball
##  7 a     snowball
##  8 los   snowball
##  9 del   snowball
## 10 se    snowball
## # … with 298 more rows
```

---

## Various lexicons

See `?get_stopwords` for more info.

```r
get_stopwords(source = "smart")
```

```
## # A tibble: 571 x 2
##    word        lexicon
##    <chr>       <chr>  
##  1 a           smart  
##  2 a's         smart  
##  3 able        smart  
##  4 about       smart  
##  5 above       smart  
##  6 according   smart  
##  7 accordingly smart  
##  8 across      smart  
##  9 actually    smart  
## 10 after       smart  
## # … with 561 more rows
```
…
## What are the most common words?

```r
hamilton_lyrics %>%
  anti_join(get_stopwords(source = "smart")) %>%
  count(word) %>%
  arrange(desc(n))
```

```
## Joining, by = "word"
```

```
## # A tibble: 2,762 x 2
##    word          n
##    <chr>     <int>
##  1 da          103
##  2 hey          84
##  3 wait         82
##  4 hamilton     72
##  5 time         65
##  6 burr         64
##  7 room         64
##  8 alexander    58
##  9 sir          54
## 10 man          48
## # … with 2,752 more rows
```
…
- One way to analyze the sentiment of a text is to consider the text as a combination of its individual words 
- and the sentiment content of the whole text as the sum of the sentiment content of the individual words

---

## Sentiment lexicons

.pull-left[

```r
get_sentiments("afinn")
```

```
## # A tibble: 2,477 x 2
##    word       value
##    <chr>      <dbl>
##  1 abandon       -2
##  2 abandoned     -2
##  3 abandons      -2
##  4 abducted      -2
##  5 abduction     -2
##  6 abductions    -2
##  7 abhor         -3
##  8 abhorred      -3
##  9 abhorrent     -3
## 10 abhors        -3
## # … with 2,467 more rows
```
]
.pull-right[

```r
get_sentiments("bing") 
```

```
## # A tibble: 6,786 x 2
##    word        sentiment
##    <chr>       <chr>    
##  1 2-faces     negative 
##  2 abnormal    negative 
##  3 abolish     negative 
##  4 abominable  negative 
##  5 abominably  negative 
##  6 abominate   negative 
##  7 abomination negative 
##  8 abort       negative 
##  9 aborted     negative 
## 10 aborts      negative 
## # … with 6,776 more rows
```
…
## Sentiments in Hamilton lyrics

```r
hamilton_lyrics %>%
  inner_join(get_sentiments("bing")) %>%
  count(sentiment, word) %>%
  arrange(desc(n))
```

```
## Joining, by = "word"
```

```
## # A tibble: 540 x 3
##    sentiment word          n
##    <chr>     <chr>     <int>
##  1 positive  like         76
##  2 positive  right        44
##  3 negative  helpless     33
##  4 positive  nice         33
##  5 positive  well         33
##  6 positive  work         32
##  7 positive  enough       31
##  8 positive  satisfied    31
##  9 negative  shit         21
## 10 positive  love         19
## # … with 530 more rows
```
…
---

## All lyrics

.small[

```r
mixtape_lyrics <- mixtape %>%
  unnest_tokens(word, lyric)

mixtape_lyrics
```

```
## # A tibble: 31,856 x 6
##    track_title                       track_n  line album   artist     word 
##    <chr>                               <int> <int> <chr>   <chr>      <chr>
##  1 Alexander Hamilton (Off-Broadway…       1     1 Hamilt… Lin-Manue… how  
##  2 Alexander Hamilton (Off-Broadway…       1     1 Hamilt… Lin-Manue… does 
##  3 Alexander Hamilton (Off-Broadway…       1     1 Hamilt… Lin-Manue… a    
##  4 Alexander Hamilton (Off-Broadway…       1     1 Hamilt… Lin-Manue… bast…
##  5 Alexander Hamilton (Off-Broadway…       1     1 Hamilt… Lin-Manue… orph…
##  6 Alexander Hamilton (Off-Broadway…       1     1 Hamilt… Lin-Manue… son  
##  7 Alexander Hamilton (Off-Broadway…       1     1 Hamilt… Lin-Manue… of   
##  8 Alexander Hamilton (Off-Broadway…       1     1 Hamilt… Lin-Manue… a    
##  9 Alexander Hamilton (Off-Broadway…       1     1 Hamilt… Lin-Manue… whore
## 10 Alexander Hamilton (Off-Broadway…       1     1 Hamilt… Lin-Manue… and  
## # … with 31,846 more rows
```
…
---

## Calculating tf-idf

This is not that exciting... What's the issue?

```r
mixtape_words <- mixtape_lyrics_counts %>%
  bind_tf_idf(word, artist, n)

mixtape_words
```

```
## # A tibble: 4,006 x 6
##    artist             word          n      tf   idf  tf_idf
##    <chr>              <chr>     <int>   <dbl> <dbl>   <dbl>
##  1 Lin-Manuel Miranda hey          84 0.00997 0.288 0.00287
##  2 Lin-Manuel Miranda wait         82 0.00974 0.693 0.00675
##  3 Lin-Manuel Miranda hamilton     72 0.00855 1.39  0.0119 
##  4 Lin-Manuel Miranda time         65 0.00772 0     0      
##  5 Lin-Manuel Miranda burr         64 0.00760 1.39  0.0105 
##  6 Lin-Manuel Miranda room         64 0.00760 0.288 0.00219
##  7 Lin-Manuel Miranda alexander    58 0.00689 1.39  0.00955
##  8 Khalid             love         57 0.0405  0     0      
##  9 Lin-Manuel Miranda sir          54 0.00641 0.693 0.00444
## 10 Lin-Manuel Miranda man          48 0.00570 0     0      
## # … with 3,996 more rows
```

---

## Sorting tf-idf

```r
mixtape_words %>%
  bind_tf_idf(word, artist, n) %>%
  arrange(-tf_idf)
```

```
## # A tibble: 4,006 x 6
##    artist              word        n     tf   idf tf_idf
##    <chr>               <chr>   <int>  <dbl> <dbl>  <dbl>
##  1 Belle and Sebastian track      19 0.0207 1.39  0.0287
##  2 Khalid              turning    29 0.0206 1.39  0.0286
##  3 Belle and Sebastian stars      18 0.0196 1.39  0.0272
##  4 Muse                drones     15 0.0182 1.39  0.0252
##  5 Muse                psycho     14 0.0170 1.39  0.0235
##  6 Belle and Sebastian judy       14 0.0153 1.39  0.0212
##  7 Belle and Sebastian snow       13 0.0142 1.39  0.0197
##  8 Khalid              blooded    18 0.0128 1.39  0.0177
##  9 Khalid              promise    32 0.0227 0.693 0.0158
## 10 Muse                aye         9 0.0109 1.39  0.0151
## # … with 3,996 more rows
```
…
